  {
    "$schema": "https://schema.management.azure.com/schemas/2019-04-01/deploymentParameters.json#",
    "contentVersion": "1.0.0.0",
    "parameters": {
	    
	  "location": {
		     "value": "westus"
        }, 
	
	  "virtualNetworkNewOrExisting": {
	      "value": "new"
	  },
	  
	    "virtualNetworkName": {
		  "value": "slack-vnet-2"
	  },
	   
	   
	    "addressPrefixes": {
		  "value": "10.3.0.0/24"
	  },
	  
	   "subnet-1-Name": {
	     "value": "dev"
	  },
	  
	   "subnet-2-Name": {
	     "value": "qa"
	  },
	  
	  	"subnet-3-Name": {
	     "value": "staging"
	  },
	  	
	   "subnet-4-Name": {
	     "value": "prod"
	  },		
	  
	  "subnet-1-Prefix": {
	  "value": "10.3.0.0/26"
	},
	
	"subnet-2-Prefix": {
	   "value": "10.3.0.64/28"
	},
	
	"subnet-3-Prefix": {
	   "value": "10.3.0.80/28"
	},
	
	"subnet-4-Prefix": {
	    "value": "10.3.0.96/28"
	}
	
	}
}