{
  "$schema": "https://schema.management.azure.com/schemas/2019-04-01/deploymentTemplate.json#",
  "contentVersion": "1.0.0.0",
  "parameters": {},
  "variables": {},
 "resources": [
  {
  "type": "Microsoft.Resources/deployments",
  "apiVersion": "2020-01-01",
  "name": "prodPublicIpDeployment",
  "properties": {
     "expressionEvaluationOptions": {
     "scope": "inner"
        },
    "mode": "Incremental",
    "templateLink": {
      "uri":"https://bitbucket.org/accelerators-devops/templates/raw/b4523bb482417f6266f977fdf77a4de3fceb64f4/ARM-templates/PublicIp/tempalte-for-publicipaddress.json",
      "contentVersion":"1.0.0.0"
    },
    "parametersLink": {
      "uri":"https://bitbucket.org/accelerators-devops/templates/raw/b4523bb482417f6266f977fdf77a4de3fceb64f4/ARM-templates/PublicIp/template-parameters-for-prod-Publicipaddress.json",
      "contentVersion":"1.0.0.0"
    }
  }
  },
  

    {
  "type": "Microsoft.Resources/deployments",
  "apiVersion": "2020-01-01",
  "name": "prodNsgDeployment",
  "properties": {
       "expressionEvaluationOptions": {
       "scope": "inner"
        },
    
    "mode": "Incremental",
    "templateLink": {
      "uri":"https://bitbucket.org/accelerators-devops/templates/raw/b4523bb482417f6266f977fdf77a4de3fceb64f4/ARM-templates/Nsg/deployment_environments/template-for-Nsg.json",
      "contentVersion":"1.0.0.0"
    },
    "parametersLink": {
      "uri":"https://bitbucket.org/accelerators-devops/templates/raw/b4523bb482417f6266f977fdf77a4de3fceb64f4/ARM-templates/Nsg/deployment_environments/template-parameters-for-prodNsg.json",
      "contentVersion":"1.0.0.0"
      }
    },
    "dependsOn": [
        "prodPublicIpDeployment"
      ]
  },
  
    {
  "type": "Microsoft.Resources/deployments",
  "apiVersion": "2020-01-01",
  "name": "prodNicDeployment",
  "properties": {
      "expressionEvaluationOptions": {
       "scope": "inner"
        },
    "mode": "Incremental",
    "templateLink": {
      "uri":"https://bitbucket.org/accelerators-devops/templates/raw/64cbc9579b401c741271f2c39658e9d713f202a9/ARM-templates/Nic/template-for-Nic.json",
      "contentVersion":"1.0.0.0"
    },
    "parametersLink": {
      "uri":"https://bitbucket.org/accelerators-devops/templates/raw/b4523bb482417f6266f977fdf77a4de3fceb64f4/ARM-templates/Nic/template-parameters-for-prod-Nic.json",
      "contentVersion":"1.0.0.0"
      }    
    },

    "dependsOn": [
        "prodNsgDeployment"
      ]
  },
  
    {
  "type": "Microsoft.Resources/deployments",
  "apiVersion": "2020-01-01",
  "name": "prodVmDeployment",
  "properties": {
         "expressionEvaluationOptions": {
          "scope": "inner"
        },
    "mode": "Incremental",
    "templateLink": {
      "uri":"https://bitbucket.org/accelerators-devops/templates/raw/64cbc9579b401c741271f2c39658e9d713f202a9/ARM-templates/virtualmachine/template-for-vm.json",
      "contentVersion":"1.0.0.0"
    },
    "parametersLink": {
      "uri":"https://bitbucket.org/accelerators-devops/templates/raw/b4523bb482417f6266f977fdf77a4de3fceb64f4/ARM-templates/virtualmachine/template-parameters-for-prod-vm.json",
      "contentVersion":"1.0.0.0"
        }
     },
  "dependsOn": [
        "prodNicDeployment"
      ]
  },
  
    {
  "type": "Microsoft.Resources/deployments",
  "apiVersion": "2020-01-01",
  "name": "customExtensionExecution",
  "properties": {
        "expressionEvaluationOptions": {
          "scope": "inner"
        },
    "mode": "Incremental",
    "templateLink": {
      "uri":"https://bitbucket.org/accelerators-devops/templates/raw/cbedf919b5c103c91baf8c58f99b2958a3b6c403/ARM-templates/customScriptExtension/deployment-environments/tempalte-for-customExtensionScript.json",
      "contentVersion":"1.0.0.0"
    },
    "parametersLink": {
      "uri":"https://bitbucket.org/accelerators-devops/templates/raw/73b8e6a976dd58f2de72701d07bd0b54f77abf94/ARM-templates/customScriptExtension/deployment-environments/template-prameters-for-prodVM-customExtensionScript.json",
      "contentVersion":"1.0.0.0"
    }
  },
   "dependsOn": [
        "prodVmDeployment"
      ]
  }
  
]
 
}