  
{
    "$schema": "https://schema.management.azure.com/schemas/2019-04-01/deploymentParameters.json#",
    "contentVersion": "1.0.0.0",
    "parameters": {
        
	   "location": {
		   "value": "westus"
        }, 
	
		"commandToExecute": {
		     "value": "sh install-jenkins.sh"
        },
		
	   "vmName": {
		     "value": "jenkinsVM"
        },
		
	   "_artifactsLocation": {
		     "value": "https://bitbucket.org/accelerators-devops/templates/raw/d9cdf96a70b747ff0040996c8d9264f862e91343/scripts/jenkins/"
        },
	    
	 	   "file_1": {
		     "value": "/install-jenkins.sh"
        },
		
	   "file_2": {
		     "value": "/install-zabbix-agent.sh"
        }
		
		
	}
}