{
  "$schema": "https://schema.management.azure.com/schemas/2019-04-01/deploymentTemplate.json#",
  "contentVersion": "1.0.0.0",
  
  
  "parameters":{
    
	
	"location": {
      "type": "string",
      "defaultValue": "[resourceGroup().location]",
      "metadata": {
        "description": "Location for all resources."
       }
	  },
	  
	 "virtualNetworkNewOrExisting": {
      "type": "string",
      "defaultValue": "new",
      "metadata": {
        "description": "Determines whether or not a new virtual network should be provisioned."
      }
    },
	
	"virtualNetworkName": {
      "type": "string",
      "defaultValue": "VirtualNetwork",
      "metadata": {
        "description": "Name of the virtual network"
      }
    },
	
	
	"addressPrefixes": {
      "type": "string",
      "defaultValue": "10.3.0.0/24",
      "metadata": {
        "description": "Address prefix of the virtual network"
      }
    }		
	  
},	  
   
   
   "variables": {
	  
	  },
	  
	  
	  
	  
 "resources": [	  

        {
      "condition": "[equals(parameters('virtualNetworkNewOrExisting'), 'new')]",
      "type": "Microsoft.Network/virtualNetworks",
      "apiVersion": "2019-11-01",
      "name": "[parameters('virtualNetworkName')]",
      "location": "[parameters('location')]",
      "properties": {
        "addressSpace": {
          "addressPrefixes": [
		  "[parameters('addressPrefixes')]"
	    ]
        }

      }
    }

   ]

}  