  
{
  "$schema": "https://schema.management.azure.com/schemas/2019-04-01/deploymentTemplate.json#",
  "contentVersion": "1.0.0.0",
  "parameters": {
    "existingVNETName": {
      "type": "string",
      "metadata": {
        "description": "Name of the VNET to add a subnet to"
      }
    },
	
	"subnetNewOrExisting": {
      "type": "string",
      "defaultValue": "new",
      "metadata": {
        "description": "Determines whether or not a new virtual network should be provisioned."
      }
    },
	
	
    "newSubnetName": {
      "type": "string",
      "metadata": {
        "description": "Name of the subnet to add"
      }
    },
    "newSubnetAddressPrefix": {
      "type": "string",
      "defaultValue": "10.0.0.0/24",
      "metadata": {
        "description": "Address space of the subnet to add"
      }
    },
    "location": {
      "type": "string",
      "defaultValue": "[resourceGroup().location]",
      "metadata": {
        "description": "Location for all resources."
      }
    }
  },
  "resources": [
    {
	  "condition": "[equals(parameters('subnetNewOrExisting'), 'new')]",
      "apiVersion": "2018-04-01",
      "type": "Microsoft.Network/virtualNetworks/subnets",
      "name": "[concat(parameters('existingVNETName'), '/', parameters('newSubnetName'))]",
      "location": "[parameters('location')]",
      "properties": {
        "addressPrefix": "[parameters('newSubnetAddressPrefix')]"
      }
    }
  ],
  "outputs": {}
}